<svg xmlns="http://www.w3.org/2000/svg" width="67" height="67" viewBox="0 0 67 67">
  <metadata><?xpacket begin="﻿" id="W5M0MpCehiHzreSzNTczkc9d"?>
<x:xmpmeta xmlns:x="adobe:ns:meta/" x:xmptk="Adobe XMP Core 5.6-c138 79.159824, 2016/09/14-01:09:01        ">
   <rdf:RDF xmlns:rdf="http://www.w3.org/1999/02/22-rdf-syntax-ns#">
      <rdf:Description rdf:about=""/>
   </rdf:RDF>
</x:xmpmeta>
                                                                                                    
                                                                                                    
                                                                                                    
                                                                                                    
                                                                                                    
                                                                                                    
                                                                                                    
                                                                                                    
                                                                                                    
                                                                                                    
                                                                                                    
                                                                                                    
                                                                                                    
                                                                                                    
                                                                                                    
                                                                                                    
                                                                                                    
                                                                                                    
                                                                                                    
                                                                                                    
                           
<?xpacket end="w"?></metadata>
<defs>
    <style>
      .cls-1 {
        fill: #d1d1d1;
        fill-rule: evenodd;
      }

      .cls-2 {
        fill: #3d3d3d;
      }
    </style>
  </defs>
  <path id="x" class="cls-1" d="M33.1,29.258L24.032,16.794H19.1L30.511,31.912,18.664,47.646l-0.123.123h4.2l9.749-13.452L42.42,47.77h4.875L35.2,31.788,46.307,16.794H42.42Z"/>
  <rect id="Rectángulo_7" data-name="Rectángulo 7" class="cls-2" width="67" height="67"/>
  <path id="Rectángulo_8" data-name="Rectángulo 8" class="cls-1" d="M17.08,31.82H49.24v4.02H17.08V31.82Z"/>
</svg>
